Project 1: Exploratory Data Analysis
…
The third and fourth data set used are much smaller in size compared to the first two. The third data set includes the 2019 total population for each county within the state of Texas. The fourth data set includes the names of Texas counties and their corresponding public health region within the state. Joining these sets of data intrigued me because I wanted to see if there is any association between COVID-19 vaccination, poverty levels, medical conditions, and public health regions.

Joining

library(tidyverse)
# upload the two datasets
covid_vaccine <- read_csv("covid19_vaccine_county_TX.csv")
poverty_county <- read_csv("poverty_county_TX.csv")
pop_county <- read_csv("2019_txpopest_county.csv")
pbh_region <- read_csv("tx_pbh_region.csv")

covid_vaccine  # covid vaccine administered

## # A tibble: 255 x 8
##    county `Total Doses Al… `Vaccine Doses … `People Vaccina… `People Fully V…
##    <chr>             <dbl>            <dbl>            <dbl>            <dbl>
##  1 Ander…            13970             9681             6723             3648
##  2 Andre…             5100             9056             5223             3934
##  3 Angel…            40500            29143            19054            10903
##  4 Arans…             4670            12396             7938             4726
##  5 Archer             2400             3819             2355             1591
##  6 Armst…             1700              837              516              332
##  7 Atasc…            13100            14728             9903             5284
##  8 Austin             6000            14393            10055             4992
##  9 Bailey            20395             3399             1960             1559
## 10 Bande…             3000             8281             5695             2863
## # … with 245 more rows, and 3 more variables: `Population, 16+` <dbl>,
## #   `Population, 65+` <dbl>, `Population, 16-64\n Any Medical Condition` <dbl>

poverty_county  #poverty estimates in 2019

## # A tibble: 254 x 4
##    county    POVALL_2019 PCTPOVALL_2019 MEDHHINC_2019
##    <chr>           <dbl>          <dbl>         <dbl>
##  1 Anderson         8702           19.8         48461
##  2 Andrews          1888           10.2         74918
##  3 Angelina        13131           15.6         51750
##  4 Aransas          4313           18.7         53085
##  5 Archer            877           10.3         63731
##  6 Armstrong         194           10.6         64424
##  7 Atascosa         7434           14.7         57309
##  8 Austin           3312           11.1         68311
##  9 Bailey           1093           15.9         46174
## 10 Bandera          2947           12.9         59604
## # … with 244 more rows

pop_county  # county population 2019

## # A tibble: 254 x 2
##    county    july1_2019_pop_est
##    <chr>                  <dbl>
##  1 Anderson               59025
##  2 Andrews                19279
##  3 Angelina               90989
##  4 Aransas                23710
##  5 Archer                  9228
##  6 Armstrong               2001
##  7 Atascosa               50898
##  8 Austin                 32067
##  9 Bailey                  7113
## 10 Bandera                23129
## # … with 244 more rows

pbh_region  # public health regions for counties

## # A tibble: 254 x 2
##    county    pbh_region
##    <chr>          <dbl>
##  1 Anderson           4
##  2 Andrews            9
##  3 Angelina           5
##  4 Aransas           11
##  5 Archer             2
##  6 Armstrong          1
##  7 Atascosa           8
##  8 Austin             6
##  9 Bailey             1
## 10 Bandera            8
## # … with 244 more rows
…
